\relax 
\catcode `"\active 
\select@language{swedish}
\@writefile{toc}{\select@language{swedish}}
\@writefile{lof}{\select@language{swedish}}
\@writefile{lot}{\select@language{swedish}}
\@writefile{toc}{\contentsline {section}{\numberline {1}}{1}}
